"miRNA" "PathName" "PathFg" "PathBg" "GenomeFG" "GenomeBG" "pval" "BH"
"155-3p" "Pathways in cancer" 17 324 453 22156 0.00040018951425691 0.044421036082517
"155-5p" "ErbB signaling pathway" 13 89 615 22156 1.0408151711605e-06 0.000140510048106668
"155-5p" "MAPK signaling pathway" 22 268 615 22156 6.45315842273675e-06 0.000864723228646724
"155-5p" "Aldosterone regulated sodium reabsorption" 8 43 615 22156 2.07072156013233e-05 0.00275405967497599
"155-5p" "T cell receptor signaling pathway" 11 110 615 22156 0.00024492896616457 0.0308610497367359
"155-5p" "Neurotrophin signaling pathway" 12 130 615 22156 0.000275705835397377 0.0344632294246722
"1956" "Wnt signaling pathway" 28 150 1346 22156 9.3876762918832e-08 1.53957891186884e-05
"1956" "Cell adhesion molecules CAMs" 26 149 1346 22156 1.03634224868365e-06 0.000168923786535435
"1956" "Neurotrophin signaling pathway" 23 130 1346 22156 3.35194349987411e-06 0.000539662903479732
"1956" "Endocytosis" 30 204 1346 22156 6.30946074087202e-06 0.00100951371853952
"1956" "T cell receptor signaling pathway" 20 110 1346 22156 9.38806760564237e-06 0.00150209081690278
"1956" "Leukocyte transendothelial migration" 19 119 1346 22156 9.9632033160435e-05 0.0156422292061883
"1956" "MAPK signaling pathway" 32 268 1346 22156 0.000204460779631654 0.0310780385040115
"1956" "ErbB signaling pathway" 15 89 1346 22156 0.000285188340724885 0.0427782511087327
"1956" "Fc epsilon RI signaling pathway" 14 80 1346 22156 0.00030130878061374 0.0451963170920611
